{
  "ok": true,
  "result": {
    "items": [
      {
        "id": 8798,
        "album_name": "Once Upon A Shattered Life",
        "artist_name": "Seventh Day Slumber",
        "duration": "209.7367",
        "title": "Shattered Life",
        "year": "2005",
        "file": "http://137.74.230.245:81/song/download/8798",
        "format": "mp3"
      },
      {
        "id": 8797,
        "album_name": "Nouveau Zydeco",
        "artist_name": "Myrick \"Freeze\" Guillory",
        "duration": "300.8257",
        "title": "Zydeco In D-Minor",
        "year": "0",
        "file": "http://137.74.230.245:81/song/download/8797",
        "format": "mp3"
      },
      {
        "id": 8796,
        "album_name": "Reality",
        "artist_name": "Winston Reedy",
        "duration": "193.7236",
        "title": "Sentimental Man",
        "year": "0",
        "file": "http://137.74.230.245:81/song/download/8796",
        "format": "mp3"
      },
      {
        "id": 8795,
        "album_name": "Collection",
        "artist_name": "Danny Williams",
        "duration": "168.0191",
        "title": "The Wonderful World Of The Young",
        "year": "1998",
        "file": "http://137.74.230.245:81/song/download/8795",
        "format": "mp3"
      },
      {
        "id": 8793,
        "album_name": "The Unforgettable Grandpa Jones",
        "artist_name": "Grandpa Jones",
        "duration": "141.7400",
        "title": "Down In Dixie",
        "year": "0",
        "file": "http://137.74.230.245:81/song/download/8793",
        "format": "mp3"
      },
      {
        "id": 8792,
        "album_name": "Gift Grub 10",
        "artist_name": "Mario Rosenstock",
        "duration": "187.1408",
        "title": "Munster Song (Best of 2009)",
        "year": "0",
        "file": "http://137.74.230.245:81/song/download/8792",
        "format": "mp3"
      },
      {
        "id": 8791,
        "album_name": "Return Of The Guardians",
        "artist_name": "David Arkenstone",
        "duration": "314.5922",
        "title": "The Forgotten Lands",
        "year": "1996",
        "file": "http://137.74.230.245:81/song/download/8791",
        "format": "mp3"
      },
      {
        "id": 8790,
        "album_name": "The Sporting Life",
        "artist_name": "Diamanda Galas",
        "duration": "162.9514",
        "title": "Dark End Of The Street",
        "year": "0",
        "file": "http://137.74.230.245:81/song/download/8790",
        "format": "mp3"
      },
      {
        "id": 8789,
        "album_name": "Sirens",
        "artist_name": "It Dies Today",
        "duration": "179.4085",
        "title": "One the road (to Damnation)",
        "year": "2006",
        "file": "http://137.74.230.245:81/song/download/8789",
        "format": "mp3"
      },
      {
        "id": 8788,
        "album_name": "111",
        "artist_name": "Mouth Of The Architect",
        "duration": "475.2191",
        "title": "Harboring An Apparition",
        "year": "2006",
        "file": "http://137.74.230.245:81/song/download/8788",
        "format": "mp3"
      },
      {
        "id": 8787,
        "album_name": "Beladi",
        "artist_name": "Chantal Chamandy",
        "duration": "256.1563",
        "title": "Zindegi",
        "year": "0",
        "file": "http://137.74.230.245:81/song/download/8787",
        "format": "mp3"
      },
      {
        "id": 8786,
        "album_name": "Kaskaad - Mohawk Hunt / Earuption",
        "artist_name": "Kaskaad",
        "duration": "414.9024",
        "title": "Mohawk Hunt",
        "year": "0",
        "file": "http://137.74.230.245:81/song/download/8786",
        "format": "mp3"
      },
      {
        "id": 8785,
        "album_name": "Genesis And Jo",
        "artist_name": "Don Francisco",
        "duration": "311.2224",
        "title": "Overture (Genesis & Job)",
        "year": "0",
        "file": "http://137.74.230.245:81/song/download/8785",
        "format": "mp3"
      },
      {
        "id": 8784,
        "album_name": "Let The Movie Begin",
        "artist_name": "Joy Division",
        "duration": "141.0869",
        "title": "Leaders Of Men",
        "year": "1978",
        "file": "http://137.74.230.245:81/song/download/8784",
        "format": "mp3"
      },
      {
        "id": 8781,
        "album_name": "Boomerang",
        "artist_name": "Daara J",
        "duration": "261.6159",
        "title": "Le Precipice",
        "year": "0",
        "file": "http://137.74.230.245:81/song/download/8781",
        "format": "mp3"
      },
      {
        "id": 8780,
        "album_name": "The Best Of Ivan Parker",
        "artist_name": "Ivan Parker",
        "duration": "207.9081",
        "title": "Then He Said_ \"Sing",
        "year": "0",
        "file": "http://137.74.230.245:81/song/download/8780",
        "format": "mp3"
      },
      {
        "id": 8779,
        "album_name": "Them",
        "artist_name": "themselves",
        "duration": "271.4379",
        "title": "Crayon Sharpener",
        "year": "2003",
        "file": "http://137.74.230.245:81/song/download/8779",
        "format": "mp3"
      },
      {
        "id": 8778,
        "album_name": "Kissed",
        "artist_name": "Winterlight",
        "duration": "328.6722",
        "title": "Daybreak",
        "year": "0",
        "file": "http://137.74.230.245:81/song/download/8778",
        "format": "mp3"
      },
      {
        "id": 8777,
        "album_name": "From Hell...With Love",
        "artist_name": "Aiden",
        "duration": "241.0314",
        "title": "Die Romantic [Live]",
        "year": "0",
        "file": "http://137.74.230.245:81/song/download/8777",
        "format": "mp3"
      },
      {
        "id": 8776,
        "album_name": "The Soul Of Jazz (Jazz Club)",
        "artist_name": "Cal Tjader",
        "duration": "199.7579",
        "title": "Along Comes Mary",
        "year": "0",
        "file": "http://137.74.230.245:81/song/download/8776",
        "format": "mp3"
      }
    ],
    "_links": {
      "self": {
        "href": "http://137.74.230.245:81/song?page=1"
      },
      "first": {
        "href": "http://137.74.230.245:81/song?page=1"
      },
      "last": {
        "href": "http://137.74.230.245:81/song?page=246"
      },
      "next": {
        "href": "http://137.74.230.245:81/song?page=2"
      }
    },
    "_meta": {
      "totalCount": 4918,
      "pageCount": 246,
      "currentPage": 1,
      "perPage": 20
    }
  }
}
